{
  "availability-zones:account=884643815617:region=ap-southeast-1": [
    "ap-southeast-1a",
    "ap-southeast-1b",
    "ap-southeast-1c"
  ],
  "hosted-zone:account=884643815617:domainName=go-uat.bambu.life:region=ap-southeast-1": {
    "Id": "/hostedzone/Z0760570RCGVECAAGTU6",
    "Name": "go-uat.bambu.life."
  },
  "availability-zones:account=884643815617:region=eu-central-1": [
    "eu-central-1a",
    "eu-central-1b",
    "eu-central-1c"
  ],
  "hosted-zone:account=884643815617:domainName=go-ppe.bambu.life:region=eu-central-1": {
    "Id": "/hostedzone/Z009112332B19NNV2CGD4",
    "Name": "go-ppe.bambu.life."
  },
  "availability-zones:account=884643815617:region=ap-south-1": [
    "ap-south-1a",
    "ap-south-1b",
    "ap-south-1c"
  ],
  "hosted-zone:account=884643815617:domainName=go-demo.bambu.life:region=ap-south-1": {
    "Id": "/hostedzone/Z08247331TQ4IC00MZ1Q5",
    "Name": "go-demo.bambu.life."
  }
}
